<mxfile host="app.diagrams.net" modified="2022-09-28T10:36:33.034Z" agent="5.0 (Windows)" etag="tJ6OUMPaf-5S54CFqPWM" version="20.3.7" type="gitlab">
  <diagram name="Page-1" id="03018318-947c-dd8e-b7a3-06fadd420f32">
    <mxGraphModel dx="1730" dy="927" grid="1" gridSize="10" guides="1" tooltips="1" connect="1" arrows="1" fold="1" page="1" pageScale="1" pageWidth="1100" pageHeight="850" background="none" math="0" shadow="0">
      <root>
        <mxCell id="0" />
        <mxCell id="1" parent="0" />
        <mxCell id="677b7b8949515195-1" value="" style="whiteSpace=wrap;html=1;rounded=0;shadow=0;labelBackgroundColor=none;strokeColor=#000000;strokeWidth=1;fillColor=none;fontFamily=Verdana;fontSize=12;fontColor=#000000;align=center;comic=1;" parent="1" vertex="1">
          <mxGeometry x="20" y="20" width="1060" height="560" as="geometry" />
        </mxCell>
        <mxCell id="677b7b8949515195-2" value="&lt;font style=&quot;font-size: 22px;&quot;&gt;ALL NEWS&lt;/font&gt;" style="whiteSpace=wrap;html=1;rounded=0;shadow=0;labelBackgroundColor=none;strokeWidth=1;fontFamily=Verdana;fontSize=28;align=center;comic=1;" parent="1" vertex="1">
          <mxGeometry x="31.5" y="50" width="160" height="40" as="geometry" />
        </mxCell>
        <mxCell id="677b7b8949515195-8" value="" style="whiteSpace=wrap;html=1;rounded=0;shadow=0;labelBackgroundColor=none;strokeWidth=1;fillColor=none;fontFamily=Verdana;fontSize=12;align=center;comic=1;" parent="1" vertex="1">
          <mxGeometry x="120" y="170" width="220" height="220" as="geometry" />
        </mxCell>
        <mxCell id="677b7b8949515195-9" value="" style="line;strokeWidth=1;html=1;rounded=0;shadow=0;labelBackgroundColor=none;fillColor=none;fontFamily=Verdana;fontSize=14;fontColor=#000000;align=center;comic=1;" parent="1" vertex="1">
          <mxGeometry x="24.5" y="100" width="1060" height="10" as="geometry" />
        </mxCell>
        <mxCell id="677b7b8949515195-42" value="E-Pharmacist, Autumn Semester, 2022!" style="text;html=1;points=[];align=left;verticalAlign=top;spacingTop=-4;fontSize=14;fontFamily=Verdana" parent="1" vertex="1">
          <mxGeometry x="757" y="540" width="293" height="20" as="geometry" />
        </mxCell>
        <mxCell id="556sy44Zwb_4xI28QJmy-1" value="&lt;font style=&quot;font-size: 22px;&quot;&gt;LOGO&lt;/font&gt;" style="whiteSpace=wrap;html=1;rounded=0;shadow=0;labelBackgroundColor=none;strokeWidth=1;fontFamily=Verdana;fontSize=28;align=center;comic=1;" parent="1" vertex="1">
          <mxGeometry x="486" y="40" width="137" height="40" as="geometry" />
        </mxCell>
        <mxCell id="556sy44Zwb_4xI28QJmy-2" value="&lt;font style=&quot;font-size: 22px;&quot;&gt;LOGIN&lt;/font&gt;" style="whiteSpace=wrap;html=1;rounded=0;shadow=0;labelBackgroundColor=none;strokeWidth=1;fontFamily=Verdana;fontSize=28;align=center;comic=1;" parent="1" vertex="1">
          <mxGeometry x="790" y="40" width="127" height="40" as="geometry" />
        </mxCell>
        <mxCell id="556sy44Zwb_4xI28QJmy-3" value="&lt;font style=&quot;font-size: 22px;&quot;&gt;SIGN UP&lt;/font&gt;" style="whiteSpace=wrap;html=1;rounded=0;shadow=0;labelBackgroundColor=none;strokeWidth=1;fontFamily=Verdana;fontSize=28;align=center;comic=1;" parent="1" vertex="1">
          <mxGeometry x="944" y="40" width="120" height="40" as="geometry" />
        </mxCell>
        <mxCell id="556sy44Zwb_4xI28QJmy-22" value="" style="whiteSpace=wrap;html=1;rounded=0;shadow=0;labelBackgroundColor=none;strokeWidth=1;fillColor=none;fontFamily=Verdana;fontSize=12;align=center;comic=1;" parent="1" vertex="1">
          <mxGeometry x="420" y="170" width="220" height="220" as="geometry" />
        </mxCell>
        <mxCell id="556sy44Zwb_4xI28QJmy-23" value="" style="whiteSpace=wrap;html=1;rounded=0;shadow=0;labelBackgroundColor=none;strokeWidth=1;fillColor=none;fontFamily=Verdana;fontSize=12;align=center;comic=1;" parent="1" vertex="1">
          <mxGeometry x="720" y="170" width="250" height="220" as="geometry" />
        </mxCell>
        <mxCell id="556sy44Zwb_4xI28QJmy-24" value="" style="line;strokeWidth=1;html=1;rounded=0;shadow=0;labelBackgroundColor=none;fillColor=none;fontFamily=Verdana;fontSize=14;fontColor=#000000;align=center;comic=1;" parent="1" vertex="1">
          <mxGeometry x="20" y="470" width="1060" height="10" as="geometry" />
        </mxCell>
        <mxCell id="556sy44Zwb_4xI28QJmy-26" value="&lt;font style=&quot;font-size: 15px;&quot;&gt;LOGO&lt;/font&gt;" style="whiteSpace=wrap;html=1;rounded=0;shadow=0;labelBackgroundColor=none;strokeWidth=1;fontFamily=Verdana;fontSize=28;align=center;comic=1;" parent="1" vertex="1">
          <mxGeometry x="41.5" y="490" width="68.5" height="40" as="geometry" />
        </mxCell>
        <mxCell id="556sy44Zwb_4xI28QJmy-27" value="Agile Software Management System" style="text;html=1;points=[];align=left;verticalAlign=top;spacingTop=-4;fontSize=14;fontFamily=Verdana" parent="1" vertex="1">
          <mxGeometry x="41.5" y="540" width="170" height="20" as="geometry" />
        </mxCell>
        <mxCell id="556sy44Zwb_4xI28QJmy-28" value="" style="shape=image;html=1;verticalAlign=top;verticalLabelPosition=bottom;labelBackgroundColor=#ffffff;imageAspect=0;aspect=fixed;image=https://cdn0.iconfinder.com/data/icons/phosphor-thin-vol-2/256/copyright-thin-128.png;fontSize=15;" parent="1" vertex="1">
          <mxGeometry x="732" y="540" width="25" height="25" as="geometry" />
        </mxCell>
        <mxCell id="556sy44Zwb_4xI28QJmy-29" value="&lt;font style=&quot;font-size: 24px;&quot;&gt;NEWS&lt;/font&gt;" style="whiteSpace=wrap;html=1;rounded=0;shadow=0;labelBackgroundColor=none;strokeWidth=1;fontFamily=Verdana;fontSize=28;align=center;comic=1;" parent="1" vertex="1">
          <mxGeometry x="203" y="210" width="137" height="40" as="geometry" />
        </mxCell>
        <mxCell id="556sy44Zwb_4xI28QJmy-30" value="&lt;font style=&quot;font-size: 24px;&quot;&gt;DETAILS&lt;/font&gt;" style="whiteSpace=wrap;html=1;rounded=0;shadow=0;labelBackgroundColor=none;strokeWidth=1;fontFamily=Verdana;fontSize=28;align=center;comic=1;" parent="1" vertex="1">
          <mxGeometry x="161.5" y="330" width="137" height="40" as="geometry" />
        </mxCell>
        <mxCell id="556sy44Zwb_4xI28QJmy-31" value="&lt;font style=&quot;font-size: 24px;&quot;&gt;NEWS&lt;/font&gt;" style="whiteSpace=wrap;html=1;rounded=0;shadow=0;labelBackgroundColor=none;strokeWidth=1;fontFamily=Verdana;fontSize=28;align=center;comic=1;" parent="1" vertex="1">
          <mxGeometry x="503" y="210" width="137" height="40" as="geometry" />
        </mxCell>
        <mxCell id="556sy44Zwb_4xI28QJmy-32" value="&lt;font style=&quot;font-size: 24px;&quot;&gt;NEWS&lt;/font&gt;" style="whiteSpace=wrap;html=1;rounded=0;shadow=0;labelBackgroundColor=none;strokeWidth=1;fontFamily=Verdana;fontSize=28;align=center;comic=1;" parent="1" vertex="1">
          <mxGeometry x="833" y="210" width="137" height="40" as="geometry" />
        </mxCell>
        <mxCell id="556sy44Zwb_4xI28QJmy-33" value="&lt;font style=&quot;font-size: 24px;&quot;&gt;DETAILS&lt;/font&gt;" style="whiteSpace=wrap;html=1;rounded=0;shadow=0;labelBackgroundColor=none;strokeWidth=1;fontFamily=Verdana;fontSize=28;align=center;comic=1;" parent="1" vertex="1">
          <mxGeometry x="461.5" y="330" width="137" height="40" as="geometry" />
        </mxCell>
        <mxCell id="556sy44Zwb_4xI28QJmy-34" value="&lt;font style=&quot;font-size: 24px;&quot;&gt;DETAILS&lt;/font&gt;" style="whiteSpace=wrap;html=1;rounded=0;shadow=0;labelBackgroundColor=none;strokeWidth=1;fontFamily=Verdana;fontSize=28;align=center;comic=1;" parent="1" vertex="1">
          <mxGeometry x="760" y="330" width="137" height="40" as="geometry" />
        </mxCell>
        <mxCell id="556sy44Zwb_4xI28QJmy-57" value="" style="whiteSpace=wrap;html=1;rounded=0;shadow=0;labelBackgroundColor=none;strokeColor=#000000;strokeWidth=1;fillColor=none;fontFamily=Verdana;fontSize=12;fontColor=#000000;align=center;comic=1;" parent="1" vertex="1">
          <mxGeometry x="31.5" y="660" width="1060" height="600" as="geometry" />
        </mxCell>
        <mxCell id="556sy44Zwb_4xI28QJmy-58" value="&lt;font style=&quot;font-size: 22px;&quot;&gt;ALL NEWS&lt;/font&gt;" style="whiteSpace=wrap;html=1;rounded=0;shadow=0;labelBackgroundColor=none;strokeWidth=1;fontFamily=Verdana;fontSize=28;align=center;comic=1;" parent="1" vertex="1">
          <mxGeometry x="46.5" y="680" width="160" height="40" as="geometry" />
        </mxCell>
        <mxCell id="556sy44Zwb_4xI28QJmy-59" value="" style="whiteSpace=wrap;html=1;rounded=0;shadow=0;labelBackgroundColor=none;strokeWidth=1;fillColor=none;fontFamily=Verdana;fontSize=12;align=center;comic=1;" parent="1" vertex="1">
          <mxGeometry x="286" y="780" width="537" height="320" as="geometry" />
        </mxCell>
        <mxCell id="556sy44Zwb_4xI28QJmy-60" value="" style="line;strokeWidth=1;html=1;rounded=0;shadow=0;labelBackgroundColor=none;fillColor=none;fontFamily=Verdana;fontSize=14;fontColor=#000000;align=center;comic=1;" parent="1" vertex="1">
          <mxGeometry x="27" y="740" width="1060" height="10" as="geometry" />
        </mxCell>
        <mxCell id="556sy44Zwb_4xI28QJmy-61" value="E-Pharmacist, Autumn Semester, 2022!" style="text;html=1;points=[];align=left;verticalAlign=top;spacingTop=-4;fontSize=14;fontFamily=Verdana" parent="1" vertex="1">
          <mxGeometry x="780" y="1220" width="271.5" height="20" as="geometry" />
        </mxCell>
        <mxCell id="556sy44Zwb_4xI28QJmy-62" value="&lt;font style=&quot;font-size: 22px;&quot;&gt;LOGO&lt;/font&gt;" style="whiteSpace=wrap;html=1;rounded=0;shadow=0;labelBackgroundColor=none;strokeWidth=1;fontFamily=Verdana;fontSize=28;align=center;comic=1;" parent="1" vertex="1">
          <mxGeometry x="927" y="680" width="137" height="40" as="geometry" />
        </mxCell>
        <mxCell id="556sy44Zwb_4xI28QJmy-67" value="" style="line;strokeWidth=1;html=1;rounded=0;shadow=0;labelBackgroundColor=none;fillColor=none;fontFamily=Verdana;fontSize=14;fontColor=#000000;align=center;comic=1;" parent="1" vertex="1">
          <mxGeometry x="31.5" y="1130" width="1058.5" height="60" as="geometry" />
        </mxCell>
        <mxCell id="556sy44Zwb_4xI28QJmy-68" value="&lt;font style=&quot;font-size: 15px;&quot;&gt;LOGO&lt;/font&gt;" style="whiteSpace=wrap;html=1;rounded=0;shadow=0;labelBackgroundColor=none;strokeWidth=1;fontFamily=Verdana;fontSize=28;align=center;comic=1;" parent="1" vertex="1">
          <mxGeometry x="51.5" y="1170" width="68.5" height="40" as="geometry" />
        </mxCell>
        <mxCell id="556sy44Zwb_4xI28QJmy-69" value="Agile Software Management System" style="text;html=1;points=[];align=left;verticalAlign=top;spacingTop=-4;fontSize=14;fontFamily=Verdana" parent="1" vertex="1">
          <mxGeometry x="53" y="1220" width="170" height="20" as="geometry" />
        </mxCell>
        <mxCell id="556sy44Zwb_4xI28QJmy-70" value="" style="shape=image;html=1;verticalAlign=top;verticalLabelPosition=bottom;labelBackgroundColor=#ffffff;imageAspect=0;aspect=fixed;image=https://cdn0.iconfinder.com/data/icons/phosphor-thin-vol-2/256/copyright-thin-128.png;fontSize=15;" parent="1" vertex="1">
          <mxGeometry x="743.5" y="1220" width="25" height="25" as="geometry" />
        </mxCell>
        <mxCell id="556sy44Zwb_4xI28QJmy-78" value="" style="whiteSpace=wrap;html=1;rounded=0;shadow=0;labelBackgroundColor=none;strokeWidth=1;fontFamily=Verdana;fontSize=28;align=center;comic=1;" parent="1" vertex="1">
          <mxGeometry x="320" y="890" width="380" height="40" as="geometry" />
        </mxCell>
        <mxCell id="556sy44Zwb_4xI28QJmy-79" value="" style="whiteSpace=wrap;html=1;rounded=0;shadow=0;labelBackgroundColor=none;strokeWidth=1;fontFamily=Verdana;fontSize=28;align=center;comic=1;" parent="1" vertex="1">
          <mxGeometry x="320" y="980" width="380" height="40" as="geometry" />
        </mxCell>
        <mxCell id="556sy44Zwb_4xI28QJmy-80" value="&lt;font style=&quot;font-size: 22px;&quot;&gt;Agile Software Management System&lt;/font&gt;" style="text;html=1;points=[];align=left;verticalAlign=top;spacingTop=-4;fontSize=14;fontFamily=Verdana" parent="1" vertex="1">
          <mxGeometry x="350" y="810" width="400" height="20" as="geometry" />
        </mxCell>
        <mxCell id="556sy44Zwb_4xI28QJmy-81" value="Email address" style="text;html=1;points=[];align=left;verticalAlign=top;spacingTop=-4;fontSize=14;fontFamily=Verdana" parent="1" vertex="1">
          <mxGeometry x="320" y="860" width="170" height="20" as="geometry" />
        </mxCell>
        <mxCell id="556sy44Zwb_4xI28QJmy-82" value="Password" style="text;html=1;points=[];align=left;verticalAlign=top;spacingTop=-4;fontSize=14;fontFamily=Verdana" parent="1" vertex="1">
          <mxGeometry x="320" y="950" width="170" height="20" as="geometry" />
        </mxCell>
        <mxCell id="556sy44Zwb_4xI28QJmy-84" value="&lt;font style=&quot;font-size: 22px;&quot;&gt;LOGIN&lt;/font&gt;" style="whiteSpace=wrap;html=1;rounded=0;shadow=0;labelBackgroundColor=none;strokeWidth=1;fontFamily=Verdana;fontSize=28;align=center;comic=1;fillColor=#007FFF;" parent="1" vertex="1">
          <mxGeometry x="380" y="1030" width="140" height="40" as="geometry" />
        </mxCell>
        <mxCell id="556sy44Zwb_4xI28QJmy-103" value="" style="whiteSpace=wrap;html=1;rounded=0;shadow=0;labelBackgroundColor=none;strokeColor=#000000;strokeWidth=1;fillColor=none;fontFamily=Verdana;fontSize=12;fontColor=#000000;align=center;comic=1;" parent="1" vertex="1">
          <mxGeometry x="25.25" y="1330" width="1060" height="780" as="geometry" />
        </mxCell>
        <mxCell id="556sy44Zwb_4xI28QJmy-104" value="&lt;font style=&quot;font-size: 22px;&quot;&gt;ALL NEWS&lt;/font&gt;" style="whiteSpace=wrap;html=1;rounded=0;shadow=0;labelBackgroundColor=none;strokeWidth=1;fontFamily=Verdana;fontSize=28;align=center;comic=1;" parent="1" vertex="1">
          <mxGeometry x="43" y="1350" width="160" height="40" as="geometry" />
        </mxCell>
        <mxCell id="556sy44Zwb_4xI28QJmy-105" value="" style="whiteSpace=wrap;html=1;rounded=0;shadow=0;labelBackgroundColor=none;strokeWidth=1;fillColor=none;fontFamily=Verdana;fontSize=12;align=center;comic=1;" parent="1" vertex="1">
          <mxGeometry x="281.5" y="1440" width="537" height="500" as="geometry" />
        </mxCell>
        <mxCell id="556sy44Zwb_4xI28QJmy-106" value="" style="line;strokeWidth=1;html=1;rounded=0;shadow=0;labelBackgroundColor=none;fillColor=none;fontFamily=Verdana;fontSize=14;fontColor=#000000;align=center;comic=1;" parent="1" vertex="1">
          <mxGeometry x="31.5" y="1400" width="1060" height="10" as="geometry" />
        </mxCell>
        <mxCell id="556sy44Zwb_4xI28QJmy-107" value="E-Pharmacist, Autumn Semester, 2022!" style="text;html=1;points=[];align=left;verticalAlign=top;spacingTop=-4;fontSize=14;fontFamily=Verdana" parent="1" vertex="1">
          <mxGeometry x="780" y="2060" width="271.5" height="20" as="geometry" />
        </mxCell>
        <mxCell id="556sy44Zwb_4xI28QJmy-108" value="&lt;font style=&quot;font-size: 22px;&quot;&gt;LOGO&lt;/font&gt;" style="whiteSpace=wrap;html=1;rounded=0;shadow=0;labelBackgroundColor=none;strokeWidth=1;fontFamily=Verdana;fontSize=28;align=center;comic=1;" parent="1" vertex="1">
          <mxGeometry x="927" y="1350" width="137" height="40" as="geometry" />
        </mxCell>
        <mxCell id="556sy44Zwb_4xI28QJmy-109" value="&lt;font style=&quot;font-size: 15px;&quot;&gt;LOGO&lt;/font&gt;" style="whiteSpace=wrap;html=1;rounded=0;shadow=0;labelBackgroundColor=none;strokeWidth=1;fontFamily=Verdana;fontSize=28;align=center;comic=1;" parent="1" vertex="1">
          <mxGeometry x="41.5" y="2010" width="68.5" height="40" as="geometry" />
        </mxCell>
        <mxCell id="556sy44Zwb_4xI28QJmy-110" value="Agile Software Management System" style="text;html=1;points=[];align=left;verticalAlign=top;spacingTop=-4;fontSize=14;fontFamily=Verdana" parent="1" vertex="1">
          <mxGeometry x="41.5" y="2060" width="170" height="20" as="geometry" />
        </mxCell>
        <mxCell id="556sy44Zwb_4xI28QJmy-111" value="" style="shape=image;html=1;verticalAlign=top;verticalLabelPosition=bottom;labelBackgroundColor=#ffffff;imageAspect=0;aspect=fixed;image=https://cdn0.iconfinder.com/data/icons/phosphor-thin-vol-2/256/copyright-thin-128.png;fontSize=15;" parent="1" vertex="1">
          <mxGeometry x="755" y="2047.5" width="25" height="25" as="geometry" />
        </mxCell>
        <mxCell id="556sy44Zwb_4xI28QJmy-112" value="" style="whiteSpace=wrap;html=1;rounded=0;shadow=0;labelBackgroundColor=none;strokeWidth=1;fontFamily=Verdana;fontSize=28;align=center;comic=1;" parent="1" vertex="1">
          <mxGeometry x="315.5" y="1550" width="380" height="40" as="geometry" />
        </mxCell>
        <mxCell id="556sy44Zwb_4xI28QJmy-113" value="" style="whiteSpace=wrap;html=1;rounded=0;shadow=0;labelBackgroundColor=none;strokeWidth=1;fontFamily=Verdana;fontSize=28;align=center;comic=1;" parent="1" vertex="1">
          <mxGeometry x="315.5" y="1640" width="380" height="40" as="geometry" />
        </mxCell>
        <mxCell id="556sy44Zwb_4xI28QJmy-114" value="&lt;font style=&quot;font-size: 22px;&quot;&gt;Agile Software Management System&lt;/font&gt;" style="text;html=1;points=[];align=left;verticalAlign=top;spacingTop=-4;fontSize=14;fontFamily=Verdana" parent="1" vertex="1">
          <mxGeometry x="345.5" y="1470" width="400" height="20" as="geometry" />
        </mxCell>
        <mxCell id="556sy44Zwb_4xI28QJmy-115" value="Email address" style="text;html=1;points=[];align=left;verticalAlign=top;spacingTop=-4;fontSize=14;fontFamily=Verdana" parent="1" vertex="1">
          <mxGeometry x="315.5" y="1520" width="170" height="20" as="geometry" />
        </mxCell>
        <mxCell id="556sy44Zwb_4xI28QJmy-116" value="Password" style="text;html=1;points=[];align=left;verticalAlign=top;spacingTop=-4;fontSize=14;fontFamily=Verdana" parent="1" vertex="1">
          <mxGeometry x="315.5" y="1610" width="170" height="20" as="geometry" />
        </mxCell>
        <mxCell id="556sy44Zwb_4xI28QJmy-117" value="&lt;font style=&quot;font-size: 22px;&quot;&gt;LOGIN&lt;/font&gt;" style="whiteSpace=wrap;html=1;rounded=0;shadow=0;labelBackgroundColor=none;strokeWidth=1;fontFamily=Verdana;fontSize=28;align=center;comic=1;fillColor=#007FFF;" parent="1" vertex="1">
          <mxGeometry x="320" y="1850" width="140" height="40" as="geometry" />
        </mxCell>
        <mxCell id="556sy44Zwb_4xI28QJmy-120" value="" style="line;strokeWidth=1;html=1;rounded=0;shadow=0;labelBackgroundColor=none;fillColor=none;fontFamily=Verdana;fontSize=14;fontColor=#000000;align=center;comic=1;" parent="1" vertex="1">
          <mxGeometry x="24.5" y="1970" width="1058.5" height="60" as="geometry" />
        </mxCell>
        <mxCell id="556sy44Zwb_4xI28QJmy-123" value="" style="whiteSpace=wrap;html=1;rounded=0;shadow=0;labelBackgroundColor=none;strokeWidth=1;fontFamily=Verdana;fontSize=28;align=center;comic=1;" parent="1" vertex="1">
          <mxGeometry x="320" y="1720" width="380" height="40" as="geometry" />
        </mxCell>
        <mxCell id="556sy44Zwb_4xI28QJmy-124" value="Confirm Password" style="text;html=1;points=[];align=left;verticalAlign=top;spacingTop=-4;fontSize=14;fontFamily=Verdana" parent="1" vertex="1">
          <mxGeometry x="316" y="1690" width="170" height="20" as="geometry" />
        </mxCell>
        <mxCell id="556sy44Zwb_4xI28QJmy-125" value="Rule" style="text;html=1;points=[];align=left;verticalAlign=top;spacingTop=-4;fontSize=14;fontFamily=Verdana" parent="1" vertex="1">
          <mxGeometry x="320" y="1770" width="170" height="20" as="geometry" />
        </mxCell>
        <mxCell id="556sy44Zwb_4xI28QJmy-126" value="User" style="text;html=1;points=[];align=left;verticalAlign=top;spacingTop=-4;fontSize=14;fontFamily=Verdana" parent="1" vertex="1">
          <mxGeometry x="340" y="1800" width="60" height="20" as="geometry" />
        </mxCell>
        <mxCell id="556sy44Zwb_4xI28QJmy-127" value="Subject Matter Expert" style="text;html=1;points=[];align=left;verticalAlign=top;spacingTop=-4;fontSize=14;fontFamily=Verdana" parent="1" vertex="1">
          <mxGeometry x="420" y="1800" width="140" height="20" as="geometry" />
        </mxCell>
        <mxCell id="556sy44Zwb_4xI28QJmy-128" value="Pharmacist" style="text;html=1;points=[];align=left;verticalAlign=top;spacingTop=-4;fontSize=14;fontFamily=Verdana" parent="1" vertex="1">
          <mxGeometry x="618.5" y="1800" width="101.5" height="20" as="geometry" />
        </mxCell>
        <mxCell id="556sy44Zwb_4xI28QJmy-129" value="" style="dashed=0;labelPosition=right;align=left;shape=mxgraph.gmdl.radiobutton;strokeColor=#B0B0B0;fillColor=none;strokeWidth=2;aspect=fixed;sketch=0;fontSize=22;" parent="1" vertex="1">
          <mxGeometry x="320" y="1804" width="16" height="16" as="geometry" />
        </mxCell>
        <mxCell id="556sy44Zwb_4xI28QJmy-130" value="" style="dashed=0;labelPosition=right;align=left;shape=mxgraph.gmdl.radiobutton;strokeColor=#B0B0B0;fillColor=none;strokeWidth=2;aspect=fixed;sketch=0;fontSize=22;" parent="1" vertex="1">
          <mxGeometry x="400" y="1804" width="16" height="16" as="geometry" />
        </mxCell>
        <mxCell id="556sy44Zwb_4xI28QJmy-131" value="" style="dashed=0;labelPosition=right;align=left;shape=mxgraph.gmdl.radiobutton;strokeColor=#B0B0B0;fillColor=none;strokeWidth=2;aspect=fixed;sketch=0;fontSize=22;" parent="1" vertex="1">
          <mxGeometry x="598.5" y="1804" width="16" height="16" as="geometry" />
        </mxCell>
      </root>
    </mxGraphModel>
  </diagram>
</mxfile>
